{
	"name": "HOT Tasking Manager",
	"catchphrase": "Mapping for humanitarian purposes",
	"logo": "https://wiki.openstreetmap.org/w/images/thumb/c/c9/Hot_logo.svg/320px-Hot_logo.svg.png",
	"picture": "http://learnosm.org/images/coordination/tasking_manager_image01.png",
	"description": "OSM Tasking Manager is a mapping tool designed and built for the Humanitarian OSM Team collaborative mapping. The purpose of the tool is to divide up a mapping job into smaller tasks that can be completed rapidly. It shows which areas need to be mapped and which areas need the mapping validated. This approach facilitates the distribution of tasks to the various mappers in a context of emergency. It also permits control of the progress and the homogeneity of the work done (e.g. elements to cover, specific tags to use, etc.). ",
	"start_url": "http://tasks.hotosm.org",
	"doc_url": "https://wiki.openstreetmap.org/wiki/OSM_Tasking_Manager",
	"settings": {
		"duration": "hours",
		"where": "inside",
		"difficulty": "easy"
	}
}
