{
	"name": "Maps.me",
	"catchphrase": "General map with editing capabilities",
	"logo": "https://wiki.openstreetmap.org/w/images/4/43/Mapsme.png",
	"picture": "https://upload.wikimedia.org/wikipedia/commons/thumb/0/07/Maps.me_android_screenshot_2015-10.png/337px-Maps.me_android_screenshot_2015-10.png",
	"description": "Navigation application for smartphones, based on OpenStreetMap data, which allows to add or edit some point of interest directly.",
	"start_url": "http://maps.me/en/download",
	"doc_url": "http://maps.me",
	"settings": {
		"duration": "minutes",
		"where": "outside",
		"difficulty": "easy"
	}
}
