{
	"name": "OSM Contributor",
	"catchphrase": "Simple POI editor",
	"logo": "",
	"picture": "https://github.com/jawg/osm-contributor/raw/master/images/menu.png",
	"description": "The Openstreetmap Contributor app allows anyone to contribute to OSM. It enables those-who-know to easily manage a group of newbies as the contribution process is intuitive and easy. Bring your MapParties to a whole new level!",
	"start_url": "https://play.google.com/store/apps/details?id=io.mapsquare.osmcontributor",
	"doc_url": "https://github.com/jawg/osm-contributor",
	"settings": {
		"duration": "minutes",
		"where": "outside",
		"difficulty": "easy"
	}
}
